[
  {
    "id": "service_registry",
    "repository": "https://bitbucket.org/genap/chord_service_registry",
    "data_service": false,
    "wsgi": true,
    "python_module": "chord_service_registry.app",
    "python_callable": "application",
    "python_environment": {
      "CHORD_SERVICES": "/chord/chord_services.json",
      "DATABASE": "{SERVICE_DATA}/service_registry.db"
    }
  },
  {
    "id": "project",
    "repository": "https://bitbucket.org/genap/chord_project_service",
    "data_service": false,
    "wsgi": true,
    "python_module": "chord_project_service.app",
    "python_callable": "application",
    "python_environment": {
      "DATABASE": "{SERVICE_DATA}/project_service.db"
    }
  },
  {
    "id": "drop_box",
    "repository": "https://bitbucket.org/genap/chord_drop_box_service",
    "data_service": false,
    "wsgi": true,
    "python_module": "chord_drop_box_service.app",
    "python_callable": "application",
    "python_environment": {
      "SERVICE_DATA": "{SERVICE_DATA}"
    }
  },
  {
    "id": "wes",
    "repository": "https://bitbucket.org/genap/chord_wes",
    "data_service": false,
    "apt_dependencies": ["openjdk-8-jre-headless"],
    "pre_install_commands": [
      "curl -Lo /chord/womtool.jar https://github.com/broadinstitute/cromwell/releases/download/45.1/womtool-45.1.jar"
    ],
    "pre_start_commands": [
      "nohup celery -A chord_wes.app worker &> {SERVICE_LOGS}/celery.log &"
    ],
    "wsgi": true,
    "python_module": "chord_wes.app",
    "python_callable": "application",
    "python_environment": {
      "CHORD_SERVICES": "/chord/chord_services.json",
      "CELERY_RESULT_BACKEND":  "redis+socket://{REDIS_SOCKET}",
      "CELERY_BROKER_URL": "redis+socket://{REDIS_SOCKET}",
      "DATABASE":  "{SERVICE_DATA}/wes.db",
      "SERVICE_BASE_URL": "{SERVICE_BASE_URL}",
      "SERVICE_TEMP":  "{SERVICE_TEMP}",
      "WOM_TOOL_LOCATION": "/chord/womtool.jar"
    }
  },
  {
    "id": "federation",
    "repository": "https://bitbucket.org/genap/chord_federation_async",
    "data_service": false,
    "wsgi": false,
    "python_runnable": "chord_federation_async",
    "python_environment": {
      "SOCKET": "{SERVICE_SOCKET}",
      "BASE_URL": "{SERVICE_BASE_URL}",
      "DATABASE": "{SERVICE_DATA}/federation.db"
    }
  },
  {
    "id": "rnaget",
    "repository": "https://github.com/CanDIG/rnaget_service",
    "data_service": true,
    "wsgi": true,
    "python_module": "candig_rnaget.app",
    "python_callable": "application",
    "python_args": [
      "--database", "{SERVICE_DATA}/rnaget.db",
      "--logfile", "{SERVICE_LOGS}/rnaget.log",
      "--tmpdata", "{SERVICE_TEMP}/"
    ]
  },
  {
    "id": "example",
    "repository": "https://bitbucket.org/genap/chord_example_service",
    "data_service": true,
    "wsgi": true,
    "python_module": "chord_example_service.app",
    "python_callable": "application",
    "python_environment": {
      "DATABASE": "{SERVICE_DATA}/example_service.db"
    }
  },
  {
    "id": "variant",
    "repository": "https://bitbucket.org/genap/chord_variant_service",
    "data_service": true,
    "apt_dependencies": ["samtools"],
    "wsgi": true,
    "python_module": "chord_variant_service.app",
    "python_callable": "application",
    "python_environment": {
      "DATA": "{SERVICE_DATA}/"
    }
  }
]
